<svg width="35" height="25" viewBox="0 0 35 25" fill="none" xmlns="http://www.w3.org/2000/svg">
<path d="M24.2007 0.105186L23.9063 0.104694L17.6497 12.3648L11.1679 0L2.29345 22.3373H0V24.1314H12.5644V22.3373H10.0713L12.5644 15.3562L17.6497 24.1314L22.5359 15.3562L25.0284 22.3373H22.5359V24.1314H35V22.3373H32.8407L24.2007 0.105186Z" fill="#039A55"/>
</svg>
